module gitlab.com/talex-coding-dojo/kite-base

go 1.20

require (
	github.com/davecgh/go-spew v1.1.1
	github.com/gin-gonic/gin v1.9.1
	github.com/go-pg/pg/v10 v10.11.0
	github.com/go-playground/validator/v10 v10.14.0 // indirect
	github.com/golang/protobuf v1.5.3
	github.com/json-iterator/go v1.1.12 // indirect
	github.com/modern-go/concurrent v0.0.0-20180306012644-bacd9c7ef1dd // indirect
	github.com/modern-go/reflect2 v1.0.2 // indirect
	github.com/nats-io/nats.go v1.24.0
	github.com/nats-io/nkeys v0.4.4 // indirect
	github.com/nats-io/nuid v1.0.1 // indirect
	github.com/nfnt/resize v0.0.0-20180221191011-83c6a9932646
	github.com/sakirsensoy/genv v1.0.1
	github.com/satori/go.uuid v1.2.0
	github.com/sirupsen/logrus v1.6.0
	github.com/stretchr/testify v1.8.3
	google.golang.org/protobuf v1.30.0
)

require (
	github.com/beorn7/perks v1.0.1 // indirect
	github.com/bits-and-blooms/bitset v1.2.0 // indirect
	github.com/bytedance/sonic v1.9.1 // indirect
	github.com/cespare/xxhash/v2 v2.1.2 // indirect
	github.com/chenzhuoyu/base64x v0.0.0-20221115062448-fe3a3abad311 // indirect
	github.com/gabriel-vasile/mimetype v1.4.2 // indirect
	github.com/gin-contrib/sse v0.1.0 // indirect
	github.com/go-pg/zerochecker v0.2.0 // indirect
	github.com/go-playground/locales v0.14.1 // indirect
	github.com/go-playground/universal-translator v0.18.1 // indirect
	github.com/goccy/go-json v0.10.2 // indirect
	github.com/jinzhu/inflection v1.0.0 // indirect
	github.com/klauspost/compress v1.16.5 // indirect
	github.com/klauspost/cpuid/v2 v2.2.4 // indirect
	github.com/konsorten/go-windows-terminal-sequences v1.0.3 // indirect
	github.com/leodido/go-urn v1.2.4 // indirect
	github.com/mattn/go-isatty v0.0.19 // indirect
	github.com/matttproud/golang_protobuf_extensions v1.0.1 // indirect
	github.com/nats-io/nats-server/v2 v2.9.16 // indirect
	github.com/pelletier/go-toml/v2 v2.0.8 // indirect
	github.com/penglongli/gin-metrics v0.1.10 // indirect
	github.com/pkg/errors v0.9.1 // indirect
	github.com/pmezard/go-difflib v1.0.0 // indirect
	github.com/prometheus/client_golang v1.12.0 // indirect
	github.com/prometheus/client_model v0.2.0 // indirect
	github.com/prometheus/common v0.32.1 // indirect
	github.com/prometheus/procfs v0.7.3 // indirect
	github.com/tmthrgd/go-hex v0.0.0-20190904060850-447a3041c3bc // indirect
	github.com/twitchyliquid64/golang-asm v0.15.1 // indirect
	github.com/ugorji/go/codec v1.2.11 // indirect
	github.com/vmihailenco/bufpool v0.1.11 // indirect
	github.com/vmihailenco/msgpack/v5 v5.3.4 // indirect
	github.com/vmihailenco/tagparser v0.1.2 // indirect
	github.com/vmihailenco/tagparser/v2 v2.0.0 // indirect
	golang.org/x/arch v0.3.0 // indirect
	golang.org/x/crypto v0.9.0 // indirect
	golang.org/x/net v0.10.0 // indirect
	golang.org/x/sys v0.8.0 // indirect
	golang.org/x/text v0.9.0 // indirect
	golang.org/x/xerrors v0.0.0-20200804184101-5ec99f83aff1 // indirect
	gopkg.in/yaml.v3 v3.0.1 // indirect
	mellium.im/sasl v0.3.1 // indirect
)
